- API Title:

    Show Friends
 
- API Endpoint:

    http://localhost:8080/show-friends

- Request Method:
	
    GET
	
- Request Body:

    {
        "userMobileNumber":"7028"
    }
	
- Request Params:

    NULL

- Path Variables:

	NULL

- Success response:

	 

- Error response:

	 NULL
